State Code : 200
{'Date': 'Mon, 20 May 2024 12:58:47 GMT', 'Content-Type': 'application/json; charset=utf-8', 'Transfer-Encoding': 'chunked', 'Connection': 'keep-alive', 'Report-To': '{"group":"heroku-nel","max_age":3600,"endpoints":[{"url":"https://nel.heroku.com/reports?ts=1716139606&sid=c4c9725f-1ab0-44d8-820f-430df2718e11&s=ePSq6PxW0hKtBsb6tl061k9%2BnshKmPn7CJpVlxVV1lY%3D"}]}', 'Reporting-Endpoints': 'heroku-nel=https://nel.heroku.com/reports?ts=1716139606&sid=c4c9725f-1ab0-44d8-820f-430df2718e11&s=ePSq6PxW0hKtBsb6tl061k9%2BnshKmPn7CJpVlxVV1lY%3D', 'Nel': '{"report_to":"heroku-nel","max_age":3600,"success_fraction":0.005,"failure_fraction":0.05,"response_headers":["Via"]}', 'X-Powered-By': 'Express', 'Access-Control-Allow-Origin': '*', 'Etag': 'W/"406-ut0vzoCuidvyMf8arZpMpJ6ZRDw"', 'Via': '1.1 vegur', 'Cache-Control': 'max-age=14400', 'CF-Cache-Status': 'HIT', 'Age': '4646', 'Vary': 'Accept-Encoding', 'Server': 'cloudflare', 'CF-RAY': '886c800e79cd5a02-DEL', 'Content-Encoding': 'gzip'}
Mon, 20 May 2024 12:58:47 GMT
application/json; charset=utf-8
cloudflare
<RequestsCookieJar[]>
utf-8
0:00:00.803436
(b'{"page":2,"per_page":6,"total":12,"total_pages":2,"data":[{"id":7,"email":"m'
 b'ichael.lawson@reqres.in","first_name":"Michael","last_name":"Lawson","avatar'
 b'":"https://reqres.in/img/faces/7-image.jpg"},{"id":8,"email":"lindsay.fergus'
 b'on@reqres.in","first_name":"Lindsay","last_name":"Ferguson","avatar":"https:'
 b'//reqres.in/img/faces/8-image.jpg"},{"id":9,"email":"tobias.funke@reqres.in"'
 b',"first_name":"Tobias","last_name":"Funke","avatar":"https://reqres.in/img/f'
 b'aces/9-image.jpg"},{"id":10,"email":"byron.fields@reqres.in","first_name":"B'
 b'yron","last_name":"Fields","avatar":"https://reqres.in/img/faces/10-image.jp'
 b'g"},{"id":11,"email":"george.edwards@reqres.in","first_name":"George","last_'
 b'name":"Edwards","avatar":"https://reqres.in/img/faces/11-image.jpg"},{"id":1'
 b'2,"email":"rachel.howell@reqres.in","first_name":"Rachel","last_name":"Howel'
 b'l","avatar":"https://reqres.in/img/faces/12-image.jpg"}],"support":{"url":"h'
 b'ttps://reqres.in/#support-heading","text":"To keep ReqRes free, contribution'
 b's towards server costs are appreciated!"}}')
{'page': 2, 'per_page': 6, 'total': 12, 'total_pages': 2, 'data': [{'id': 7, 'email': 'michael.lawson@reqres.in', 'first_name': 'Michael', 'last_name': 'Lawson', 'avatar': 'https://reqres.in/img/faces/7-image.jpg'}, {'id': 8, 'email': 'lindsay.ferguson@reqres.in', 'first_name': 'Lindsay', 'last_name': 'Ferguson', 'avatar': 'https://reqres.in/img/faces/8-image.jpg'}, {'id': 9, 'email': 'tobias.funke@reqres.in', 'first_name': 'Tobias', 'last_name': 'Funke', 'avatar': 'https://reqres.in/img/faces/9-image.jpg'}, {'id': 10, 'email': 'byron.fields@reqres.in', 'first_name': 'Byron', 'last_name': 'Fields', 'avatar': 'https://reqres.in/img/faces/10-image.jpg'}, {'id': 11, 'email': 'george.edwards@reqres.in', 'first_name': 'George', 'last_name': 'Edwards', 'avatar': 'https://reqres.in/img/faces/11-image.jpg'}, {'id': 12, 'email': 'rachel.howell@reqres.in', 'first_name': 'Rachel', 'last_name': 'Howell', 'avatar': 'https://reqres.in/img/faces/12-image.jpg'}], 'support': {'url': 'https://reqres.in/#support-heading', 'text': 'To keep ReqRes free, contributions towards server costs are appreciated!'}}
[2]
id -> 7
email -> michael.lawson@reqres.in
first_name -> Michael
last_name -> Lawson
avatar -> https://reqres.in/img/faces/7-image.jpg
